Exploring Principal Component Analysis with tidymodels and prcomp
…
# to obtain loadings. Here you're telling tidy to tidy the step of recipe with id=pca
tidy_diamond_pca_loadings <-
  prep_diamond %>% 
  tidy(id = "pca") %>% 
  pivot_wider(id_cols = c(terms, id),
              names_from = component,
              values_from = value)

# this also obtains loadings. Here you are tidy-ing the 3rd step of the recipe
prep_diamond %>% tidy(3)

# A tibble: 49 × 4
   terms     value component id   
   <chr>     <dbl> <chr>     <chr>
 1 carat  0.452    PC1       pca  
 2 depth -0.000916 PC1       pca  
 3 table  0.0995   PC1       pca  
 4 price  0.426    PC1       pca  
 5 x      0.453    PC1       pca  
 6 y      0.447    PC1       pca  
 7 z      0.446    PC1       pca  
 8 carat -0.0347   PC2       pca  
 9 depth -0.731    PC2       pca  
10 table  0.675    PC2       pca  
# ℹ 39 more rows
…
housing_PCA <-
  housing %>% 
  prcomp(scale = T)

# we can use tidy(matrix = "xxxx") to get some useful info

# self explanatory, we obtain loadings
housing_PCA %>% 
  tidy(matrix = "loadings")

# A tibble: 196 × 3
   column    PC    value
   <chr>  <dbl>    <dbl>
 1 crim       1  0.242  
 2 crim       2 -0.0659 
 3 crim       3  0.395  
 4 crim       4  0.100  
 5 crim       5 -0.00496
 6 crim       6  0.225  
 7 crim       7 -0.777  
 8 crim       8  0.157  
 9 crim       9 -0.254  
10 crim      10 -0.0714 
# ℹ 186 more rows
…
  theme(legend.position = "none") 

List of 1
 $ legend.position: chr "none"
 - attr(*, "class")= chr [1:2] "theme" "gg"
 - attr(*, "complete")= logi FALSE
 - attr(*, "validate")= logi TRUE

# Same as doing this
housing_PCA %>% 
  tidy(matrix = "scores")

# A tibble: 7,084 × 3
     row    PC   value
   <int> <dbl>   <dbl>
 1     1     1 -2.09  
 2     1     2  0.492 
 3     1     3 -0.336 
 4     1     4 -0.0281
 5     1     5 -1.01  
 6     1     6  0.262 
 7     1     7 -0.328 
 8     1     8  0.160 
 9     1     9  0.471 
10     1    10 -0.206 
# ℹ 7,074 more rows
…
