text analysis in R: tidytext, stm, quanteda
…
Let’s take a look at the output.

output_text_lda<-
  text_lda %>% prep() %>% juice()
output_text_lda

# A tibble: 12,293 × 2
   date            review
   <fct>        <tknlist>
 1 2-Aug-18   [34 tokens]
 2 27-May-18 [117 tokens]
 3 2-Aug-18   [28 tokens]
 4 2-Aug-18   [66 tokens]
 5 2-Aug-18   [84 tokens]
 6 2-Aug-18   [52 tokens]
 7 1-Aug-18   [26 tokens]
 8 1-Aug-18  [127 tokens]
 9 1-Aug-18   [41 tokens]
10 1-Aug-18  [365 tokens]
# ℹ 12,283 more rows
…
We see that stopword such as “and”, “is” as well as punctuations such as “.” and “,” have been removed. Notice that token#26 “so.e” is likely a spelling mistake; its probably meant to be “some”.

Let’s combine the tokens back into sentences without stopword and punctuation, before passing it to CreateDtm from the textmineR package.

text_lda<-
  text_lda %>% 
  step_untokenize(review) %>% 
  prep() %>% 
  juice() %>% 
  rowid_to_column("id")

text_lda %>% print(n=5)

# A tibble: 12,293 × 3
     id date      review                                              
  <int> <fct>     <fct>                                               
1     1 2-Aug-18  stayed 7 nights 3 year old son decor hotel little o…
2     2 27-May-18 stayed ali tower nice stay proximity beach great pr…
3     3 2-Aug-18  awesome place attentive friendly staff stunning vie…
4     4 2-Aug-18  made reservation december celebrate 50th wedding an…
5     5 2-Aug-18  arrived hotel 4 30pm local time hundreds people che…
# ℹ 12,288 more rows
…
